{ "height":9,
 "layers":[
        {
         "data":[2, 0, 0, 0, 0, 0, 0, 0, 0, 0, 0, 0, 0, 0, 0, 0, 0, 0, 0, 0, 0, 0, 0, 0, 0, 0, 0, 0, 0, 0, 0, 0, 0, 0, 0, 0, 0, 0, 0, 0, 0, 0, 0, 0, 0, 0, 0, 0, 0, 0, 0, 0, 0, 0, 0, 0, 0, 0, 0, 0, 0, 0, 0, 0, 0, 0, 0, 0, 0, 0, 0, 0, 0, 0, 0, 0, 0, 0, 0, 0, 0, 0, 0, 0, 0, 0, 0, 0, 0, 0, 0, 0, 0, 0, 0, 0, 0, 0, 0, 0, 0, 0, 0, 0, 0, 0, 0, 0, 0, 0, 0, 0, 0, 0, 0, 0, 0, 0, 0, 0, 0, 0, 0, 0, 0, 0, 0, 0, 0, 0, 0, 0, 0, 0, 0, 0, 0, 0, 0, 0, 0, 0, 0, 0],
         "height":9,
         "name":"background",
         "opacity":1,
         "type":"tilelayer",
         "visible":true,
         "width":16,
         "x":0,
         "y":0
        }, 
        {
         "data":[1, 1, 1, 1, 1, 1, 1, 1, 1, 1, 1, 1, 1, 1, 1, 1, 1, 0, 0, 1, 0, 1, 0, 0, 0, 1, 0, 0, 0, 0, 0, 1, 1, 0, 0, 1, 0, 0, 0, 1, 0, 1, 0, 0, 1, 0, 0, 1, 1, 0, 0, 1, 1, 1, 1, 1, 0, 1, 0, 0, 1, 1, 1, 1, 1, 0, 0, 0, 0, 0, 0, 0, 0, 0, 0, 0, 0, 0, 0, 1, 1, 0, 0, 0, 0, 0, 0, 0, 0, 0, 0, 0, 0, 0, 0, 1, 1, 1, 1, 1, 1, 1, 1, 1, 1, 1, 1, 1, 0, 0, 0, 1, 1, 0, 0, 0, 0, 0, 0, 0, 0, 0, 0, 0, 0, 0, 0, 1, 1, 1, 1, 1, 1, 1, 1, 1, 1, 1, 1, 1, 1, 1, 1, 1],
         "height":9,
         "name":"static_layer",
         "opacity":1,
         "type":"tilelayer",
         "visible":true,
         "width":16,
         "x":0,
         "y":0
        }, 
        {
         "draworder":"topdown",
         "height":0,
         "name":"ball",
         "objects":[
                {
                 "gid":3,
                 "height":32,
                 "id":27,
                 "name":"",
                 "properties":
                    {

                    },
                 "rotation":0,
                 "type":"",
                 "visible":true,
                 "width":32,
                 "x":138,
                 "y":171
                }],
         "opacity":1,
         "type":"objectgroup",
         "visible":true,
         "width":0,
         "x":0,
         "y":0
        }, 
        {
         "draworder":"topdown",
         "height":0,
         "name":"red_switch",
         "objects":[
                {
                 "gid":4,
                 "height":52,
                 "id":3,
                 "name":"",
                 "properties":
                    {

                    },
                 "rotation":0,
                 "type":"",
                 "visible":true,
                 "width":80,
                 "x":320,
                 "y":160
                }],
         "opacity":1,
         "type":"objectgroup",
         "visible":true,
         "width":0,
         "x":0,
         "y":0
        }, 
        {
         "draworder":"topdown",
         "height":0,
         "name":"water",
         "objects":[
                {
                 "gid":8,
                 "height":80,
                 "id":25,
                 "name":"",
                 "properties":
                    {

                    },
                 "rotation":0,
                 "type":"",
                 "visible":true,
                 "width":80,
                 "x":80,
                 "y":640
                }],
         "opacity":1,
         "type":"objectgroup",
         "visible":true,
         "width":0,
         "x":0,
         "y":0
        }, 
        {
         "draworder":"topdown",
         "height":0,
         "name":"coins",
         "objects":[
                {
                 "gid":10,
                 "height":40,
                 "id":12,
                 "name":"",
                 "properties":
                    {

                    },
                 "rotation":0,
                 "type":"",
                 "visible":true,
                 "width":40,
                 "x":411,
                 "y":621
                }, 
                {
                 "gid":10,
                 "height":40,
                 "id":13,
                 "name":"",
                 "properties":
                    {

                    },
                 "rotation":0,
                 "type":"",
                 "visible":true,
                 "width":40,
                 "x":1074,
                 "y":582
                }, 
                {
                 "gid":10,
                 "height":40,
                 "id":14,
                 "name":"",
                 "properties":
                    {

                    },
                 "rotation":0,
                 "type":"",
                 "visible":true,
                 "width":40,
                 "x":624,
                 "y":420
                }, 
                {
                 "gid":10,
                 "height":40,
                 "id":15,
                 "name":"",
                 "properties":
                    {

                    },
                 "rotation":0,
                 "type":"",
                 "visible":true,
                 "width":40,
                 "x":1134,
                 "y":392
                }, 
                {
                 "gid":10,
                 "height":40,
                 "id":16,
                 "name":"",
                 "properties":
                    {

                    },
                 "rotation":0,
                 "type":"",
                 "visible":true,
                 "width":40,
                 "x":862,
                 "y":257
                }, 
                {
                 "gid":10,
                 "height":40,
                 "id":17,
                 "name":"",
                 "properties":
                    {

                    },
                 "rotation":0,
                 "type":"",
                 "visible":true,
                 "width":40,
                 "x":499,
                 "y":144
                }, 
                {
                 "gid":10,
                 "height":40,
                 "id":18,
                 "name":"",
                 "properties":
                    {

                    },
                 "rotation":0,
                 "type":"",
                 "visible":true,
                 "width":40,
                 "x":186,
                 "y":383
                }],
         "opacity":1,
         "type":"objectgroup",
         "visible":true,
         "width":0,
         "x":0,
         "y":0
        }, 
        {
         "draworder":"topdown",
         "height":0,
         "name":"red_door",
         "objects":[
                {
                 "gid":5,
                 "height":80,
                 "id":20,
                 "name":"",
                 "properties":
                    {

                    },
                 "rotation":0,
                 "type":"",
                 "visible":true,
                 "width":80,
                 "x":720,
                 "y":640
                }],
         "opacity":1,
         "type":"objectgroup",
         "visible":true,
         "width":0,
         "x":0,
         "y":0
        }, 
        {
         "draworder":"topdown",
         "height":0,
         "name":"exit",
         "objects":[
                {
                 "gid":6,
                 "height":80,
                 "id":21,
                 "name":"",
                 "properties":
                    {

                    },
                 "rotation":0,
                 "type":"",
                 "visible":true,
                 "width":80,
                 "x":160,
                 "y":640
                }],
         "opacity":1,
         "type":"objectgroup",
         "visible":true,
         "width":0,
         "x":0,
         "y":0
        }, 
        {
         "draworder":"topdown",
         "height":0,
         "name":"blue_door",
         "objects":[
                {
                 "gid":11,
                 "height":80,
                 "id":23,
                 "name":"",
                 "properties":
                    {

                    },
                 "rotation":0,
                 "type":"",
                 "visible":true,
                 "width":80,
                 "x":560,
                 "y":640
                }],
         "opacity":1,
         "type":"objectgroup",
         "visible":true,
         "width":0,
         "x":0,
         "y":0
        }, 
        {
         "draworder":"topdown",
         "height":0,
         "name":"blue_switch",
         "objects":[
                {
                 "gid":12,
                 "height":52,
                 "id":24,
                 "name":"",
                 "properties":
                    {

                    },
                 "rotation":0,
                 "type":"",
                 "visible":true,
                 "width":80,
                 "x":1120,
                 "y":240
                }],
         "opacity":1,
         "type":"objectgroup",
         "visible":true,
         "width":0,
         "x":0,
         "y":0
        }],
 "nextobjectid":28,
 "orientation":"orthogonal",
 "properties":
    {

    },
 "renderorder":"right-down",
 "tileheight":80,
 "tilesets":[
        {
         "firstgid":1,
         "image":"..\/gfx\/play\/wall_default.png",
         "imageheight":80,
         "imagewidth":80,
         "margin":0,
         "name":"wall_default",
         "properties":
            {

            },
         "spacing":0,
         "tilecount":1,
         "tileheight":80,
         "tilewidth":80
        }, 
        {
         "firstgid":2,
         "image":"..\/gfx\/play\/bg2.jpg",
         "imageheight":720,
         "imagewidth":1280,
         "margin":0,
         "name":"bg",
         "properties":
            {

            },
         "spacing":0,
         "tilecount":1,
         "tileheight":720,
         "tileoffset":
            {
             "x":0,
             "y":640
            },
         "tilewidth":1280
        }, 
        {
         "firstgid":3,
         "image":"..\/gfx\/play\/ball.png",
         "imageheight":32,
         "imagewidth":32,
         "margin":0,
         "name":"ball",
         "properties":
            {

            },
         "spacing":0,
         "tilecount":1,
         "tileheight":32,
         "tilewidth":32
        }, 
        {
         "firstgid":4,
         "image":"..\/gfx\/play\/sw_red_up.png",
         "imageheight":52,
         "imagewidth":80,
         "margin":0,
         "name":"sw_red_up",
         "properties":
            {

            },
         "spacing":0,
         "tilecount":1,
         "tileheight":52,
         "tilewidth":80
        }, 
        {
         "firstgid":5,
         "image":"..\/gfx\/play\/wall_red.png",
         "imageheight":80,
         "imagewidth":80,
         "margin":0,
         "name":"wall_red",
         "properties":
            {

            },
         "spacing":0,
         "tilecount":1,
         "tileheight":80,
         "tilewidth":80
        }, 
        {
         "firstgid":6,
         "image":"..\/gfx\/play\/exit.png",
         "imageheight":80,
         "imagewidth":160,
         "margin":0,
         "name":"exit",
         "properties":
            {

            },
         "spacing":0,
         "tilecount":2,
         "tileheight":80,
         "tilewidth":80
        }, 
        {
         "firstgid":8,
         "image":"..\/gfx\/play\/water.png",
         "imageheight":80,
         "imagewidth":160,
         "margin":0,
         "name":"water",
         "properties":
            {

            },
         "spacing":0,
         "tilecount":2,
         "tileheight":80,
         "tilewidth":80
        }, 
        {
         "firstgid":10,
         "image":"..\/gfx\/play\/coin.png",
         "imageheight":40,
         "imagewidth":40,
         "margin":0,
         "name":"coin",
         "properties":
            {

            },
         "spacing":0,
         "tilecount":1,
         "tileheight":40,
         "tilewidth":40
        }, 
        {
         "firstgid":11,
         "image":"..\/gfx\/play\/wall_blue.png",
         "imageheight":80,
         "imagewidth":80,
         "margin":0,
         "name":"wall_blue",
         "properties":
            {

            },
         "spacing":0,
         "tilecount":1,
         "tileheight":80,
         "tilewidth":80
        }, 
        {
         "firstgid":12,
         "image":"..\/gfx\/play\/sw_blue_up.png",
         "imageheight":52,
         "imagewidth":80,
         "margin":0,
         "name":"sw_blue_up",
         "properties":
            {

            },
         "spacing":0,
         "tilecount":1,
         "tileheight":52,
         "tilewidth":80
        }],
 "tilewidth":80,
 "version":1,
 "width":16
}