{ "height":9,
 "layers":[
        {
         "data":[2, 0, 0, 0, 0, 0, 0, 0, 0, 0, 0, 0, 0, 0, 0, 0, 0, 0, 0, 0, 0, 0, 0, 0, 0, 0, 0, 0, 0, 0, 0, 0, 0, 0, 0, 0, 0, 0, 0, 0, 0, 0, 0, 0, 0, 0, 0, 0, 0, 0, 0, 0, 0, 0, 0, 0, 0, 0, 0, 0, 0, 0, 0, 0, 0, 0, 0, 0, 0, 0, 0, 0, 0, 0, 0, 0, 0, 0, 0, 0, 0, 0, 0, 0, 0, 0, 0, 0, 0, 0, 0, 0, 0, 0, 0, 0, 0, 0, 0, 0, 0, 0, 0, 0, 0, 0, 0, 0, 0, 0, 0, 0, 0, 0, 0, 0, 0, 0, 0, 0, 0, 0, 0, 0, 0, 0, 0, 0, 0, 0, 0, 0, 0, 0, 0, 0, 0, 0, 0, 0, 0, 0, 0, 0],
         "height":9,
         "name":"background",
         "opacity":1,
         "type":"tilelayer",
         "visible":true,
         "width":16,
         "x":0,
         "y":0
        }, 
        {
         "data":[1, 1, 1, 1, 0, 1, 0, 1, 1, 1, 1, 1, 0, 1, 1, 1, 1, 0, 0, 0, 0, 0, 0, 0, 1, 0, 0, 0, 0, 0, 0, 1, 1, 0, 0, 0, 0, 0, 0, 0, 1, 0, 0, 0, 0, 0, 0, 1, 1, 0, 0, 0, 0, 0, 0, 0, 1, 1, 1, 0, 0, 0, 0, 1, 1, 0, 0, 0, 0, 0, 0, 0, 0, 0, 0, 0, 1, 0, 0, 1, 1, 0, 0, 0, 1, 1, 1, 0, 0, 0, 0, 0, 1, 0, 0, 1, 1, 0, 0, 0, 1, 0, 0, 0, 0, 0, 0, 0, 1, 0, 0, 1, 1, 0, 0, 0, 1, 0, 0, 0, 0, 0, 0, 0, 1, 0, 0, 1, 1, 1, 1, 1, 1, 1, 1, 1, 0, 1, 0, 1, 1, 1, 1, 1],
         "height":9,
         "name":"static_layer",
         "opacity":1,
         "type":"tilelayer",
         "visible":true,
         "width":16,
         "x":0,
         "y":0
        }, 
        {
         "draworder":"topdown",
         "height":0,
         "name":"ball",
         "objects":[
                {
                 "gid":3,
                 "height":32,
                 "id":27,
                 "name":"",
                 "properties":
                    {

                    },
                 "rotation":0,
                 "type":"",
                 "visible":true,
                 "width":32,
                 "x":138,
                 "y":171
                }],
         "opacity":1,
         "type":"objectgroup",
         "visible":true,
         "width":0,
         "x":0,
         "y":0
        }, 
        {
         "draworder":"topdown",
         "height":0,
         "name":"water",
         "objects":[],
         "opacity":1,
         "type":"objectgroup",
         "visible":true,
         "width":0,
         "x":0,
         "y":0
        }, 
        {
         "draworder":"topdown",
         "height":0,
         "name":"coins",
         "objects":[
                {
                 "gid":10,
                 "height":40,
                 "id":12,
                 "name":"",
                 "properties":
                    {

                    },
                 "rotation":0,
                 "type":"",
                 "visible":true,
                 "width":40,
                 "x":192.212,
                 "y":539.121
                }, 
                {
                 "gid":10,
                 "height":40,
                 "id":13,
                 "name":"",
                 "properties":
                    {

                    },
                 "rotation":0,
                 "type":"",
                 "visible":true,
                 "width":40,
                 "x":1101.03,
                 "y":309.303
                }, 
                {
                 "gid":10,
                 "height":40,
                 "id":14,
                 "name":"",
                 "properties":
                    {

                    },
                 "rotation":0,
                 "type":"",
                 "visible":true,
                 "width":40,
                 "x":743.97,
                 "y":381.879
                }, 
                {
                 "gid":10,
                 "height":40,
                 "id":16,
                 "name":"",
                 "properties":
                    {

                    },
                 "rotation":0,
                 "type":"",
                 "visible":true,
                 "width":40,
                 "x":863,
                 "y":193
                }, 
                {
                 "gid":10,
                 "height":40,
                 "id":17,
                 "name":"",
                 "properties":
                    {

                    },
                 "rotation":0,
                 "type":"",
                 "visible":true,
                 "width":40,
                 "x":239.545,
                 "y":311.939
                }, 
                {
                 "gid":10,
                 "height":40,
                 "id":18,
                 "name":"",
                 "properties":
                    {

                    },
                 "rotation":0,
                 "type":"",
                 "visible":true,
                 "width":40,
                 "x":452,
                 "y":262
                }, 
                {
                 "gid":10,
                 "height":40,
                 "id":52,
                 "name":"",
                 "properties":
                    {

                    },
                 "rotation":0,
                 "type":"",
                 "visible":true,
                 "width":40,
                 "x":1015.82,
                 "y":182.909
                }, 
                {
                 "gid":10,
                 "height":40,
                 "id":56,
                 "name":"",
                 "properties":
                    {

                    },
                 "rotation":0,
                 "type":"",
                 "visible":true,
                 "width":40,
                 "x":575.94,
                 "y":350.031
                }, 
                {
                 "gid":10,
                 "height":40,
                 "id":53,
                 "name":"",
                 "properties":
                    {

                    },
                 "rotation":0,
                 "type":"",
                 "visible":true,
                 "width":40,
                 "x":741.909,
                 "y":620.545
                }],
         "opacity":1,
         "type":"objectgroup",
         "visible":true,
         "width":0,
         "x":0,
         "y":0
        }, 
        {
         "draworder":"topdown",
         "height":0,
         "name":"exit",
         "objects":[
                {
                 "gid":6,
                 "height":80,
                 "id":21,
                 "name":"",
                 "properties":
                    {

                    },
                 "rotation":0,
                 "type":"",
                 "visible":true,
                 "width":80,
                 "x":1120,
                 "y":640
                }, 
                {
                 "gid":6,
                 "height":80,
                 "id":55,
                 "name":"",
                 "properties":
                    {

                    },
                 "rotation":0,
                 "type":"",
                 "visible":true,
                 "width":80,
                 "x":1040,
                 "y":640
                }],
         "opacity":1,
         "type":"objectgroup",
         "visible":true,
         "width":0,
         "x":0,
         "y":0
        }, 
        {
         "draworder":"topdown",
         "height":0,
         "name":"fire",
         "objects":[],
         "opacity":1,
         "type":"objectgroup",
         "visible":true,
         "width":0,
         "x":0,
         "y":0
        }, 
        {
         "draworder":"topdown",
         "height":0,
         "name":"turrets",
         "objects":[
                {
                 "gid":14,
                 "height":80,
                 "id":57,
                 "name":"",
                 "properties":
                    {
                     "dir":"down"
                    },
                 "rotation":0,
                 "type":"",
                 "visible":true,
                 "width":80,
                 "x":320,
                 "y":80
                }, 
                {
                 "gid":14,
                 "height":80,
                 "id":58,
                 "name":"",
                 "properties":
                    {
                     "dir":"down"
                    },
                 "rotation":0,
                 "type":"",
                 "visible":true,
                 "width":80,
                 "x":480,
                 "y":80
                }, 
                {
                 "gid":14,
                 "height":80,
                 "id":59,
                 "name":"",
                 "properties":
                    {
                     "dir":"up"
                    },
                 "rotation":0,
                 "type":"",
                 "visible":true,
                 "width":80,
                 "x":640,
                 "y":720
                }, 
                {
                 "gid":14,
                 "height":80,
                 "id":60,
                 "name":"",
                 "properties":
                    {
                     "dir":"up"
                    },
                 "rotation":0,
                 "type":"",
                 "visible":true,
                 "width":80,
                 "x":800,
                 "y":720
                }, 
                {
                 "gid":14,
                 "height":80,
                 "id":61,
                 "name":"",
                 "properties":
                    {
                     "dir":"down"
                    },
                 "rotation":0,
                 "type":"",
                 "visible":true,
                 "width":80,
                 "x":960,
                 "y":80
                }],
         "opacity":1,
         "properties":
            {
             "dir":"down"
            },
         "type":"objectgroup",
         "visible":true,
         "width":0,
         "x":0,
         "y":0
        }, 
        {
         "draworder":"topdown",
         "height":0,
         "name":"red_door",
         "objects":[
                {
                 "gid":5,
                 "height":80,
                 "id":64,
                 "name":"",
                 "properties":
                    {

                    },
                 "rotation":0,
                 "type":"",
                 "visible":true,
                 "width":80,
                 "x":1040,
                 "y":400
                }, 
                {
                 "gid":5,
                 "height":80,
                 "id":65,
                 "name":"",
                 "properties":
                    {

                    },
                 "rotation":0,
                 "type":"",
                 "visible":true,
                 "width":80,
                 "x":1120,
                 "y":400
                }],
         "opacity":1,
         "type":"objectgroup",
         "visible":true,
         "width":0,
         "x":0,
         "y":0
        }, 
        {
         "draworder":"topdown",
         "height":0,
         "name":"red_switch",
         "objects":[
                {
                 "gid":4,
                 "height":52,
                 "id":66,
                 "name":"",
                 "properties":
                    {

                    },
                 "rotation":0,
                 "type":"",
                 "visible":true,
                 "width":80,
                 "x":756,
                 "y":188
                }],
         "opacity":1,
         "type":"objectgroup",
         "visible":true,
         "width":0,
         "x":0,
         "y":0
        }, 
        {
         "draworder":"topdown",
         "height":0,
         "name":"blue_door",
         "objects":[
                {
                 "gid":11,
                 "height":80,
                 "id":62,
                 "name":"",
                 "properties":
                    {

                    },
                 "rotation":0,
                 "type":"",
                 "visible":true,
                 "width":80,
                 "x":1040,
                 "y":480
                }, 
                {
                 "gid":11,
                 "height":80,
                 "id":63,
                 "name":"",
                 "properties":
                    {

                    },
                 "rotation":0,
                 "type":"",
                 "visible":true,
                 "width":80,
                 "x":1120,
                 "y":480
                }],
         "opacity":1,
         "type":"objectgroup",
         "visible":true,
         "width":0,
         "x":0,
         "y":0
        }, 
        {
         "draworder":"topdown",
         "height":0,
         "name":"blue_switch",
         "objects":[
                {
                 "gid":12,
                 "height":52,
                 "id":67,
                 "name":"",
                 "properties":
                    {

                    },
                 "rotation":0,
                 "type":"",
                 "visible":true,
                 "width":80,
                 "x":439,
                 "y":584
                }],
         "opacity":1,
         "type":"objectgroup",
         "visible":true,
         "width":0,
         "x":0,
         "y":0
        }],
 "nextobjectid":69,
 "orientation":"orthogonal",
 "properties":
    {

    },
 "renderorder":"right-down",
 "tileheight":80,
 "tilesets":[
        {
         "firstgid":1,
         "image":"..\/gfx\/play\/wall_default.png",
         "imageheight":80,
         "imagewidth":80,
         "margin":0,
         "name":"wall_default",
         "properties":
            {

            },
         "spacing":0,
         "tilecount":1,
         "tileheight":80,
         "tilewidth":80
        }, 
        {
         "firstgid":2,
         "image":"..\/gfx\/play\/bg4.jpg",
         "imageheight":720,
         "imagewidth":1280,
         "margin":0,
         "name":"bg",
         "properties":
            {

            },
         "spacing":0,
         "tilecount":1,
         "tileheight":720,
         "tileoffset":
            {
             "x":0,
             "y":640
            },
         "tilewidth":1280
        }, 
        {
         "firstgid":3,
         "image":"..\/gfx\/play\/ball.png",
         "imageheight":32,
         "imagewidth":32,
         "margin":0,
         "name":"ball",
         "properties":
            {

            },
         "spacing":0,
         "tilecount":1,
         "tileheight":32,
         "tilewidth":32
        }, 
        {
         "firstgid":4,
         "image":"..\/gfx\/play\/sw_red_up.png",
         "imageheight":52,
         "imagewidth":80,
         "margin":0,
         "name":"sw_red_up",
         "properties":
            {

            },
         "spacing":0,
         "tilecount":1,
         "tileheight":52,
         "tilewidth":80
        }, 
        {
         "firstgid":5,
         "image":"..\/gfx\/play\/wall_red.png",
         "imageheight":80,
         "imagewidth":80,
         "margin":0,
         "name":"wall_red",
         "properties":
            {

            },
         "spacing":0,
         "tilecount":1,
         "tileheight":80,
         "tilewidth":80
        }, 
        {
         "firstgid":6,
         "image":"..\/gfx\/play\/exit.png",
         "imageheight":80,
         "imagewidth":160,
         "margin":0,
         "name":"exit",
         "properties":
            {

            },
         "spacing":0,
         "tilecount":2,
         "tileheight":80,
         "tilewidth":80
        }, 
        {
         "firstgid":8,
         "image":"..\/gfx\/play\/water.png",
         "imageheight":80,
         "imagewidth":160,
         "margin":0,
         "name":"water",
         "properties":
            {

            },
         "spacing":0,
         "tilecount":2,
         "tileheight":80,
         "tilewidth":80
        }, 
        {
         "firstgid":10,
         "image":"..\/gfx\/play\/coin.png",
         "imageheight":40,
         "imagewidth":40,
         "margin":0,
         "name":"coin",
         "properties":
            {

            },
         "spacing":0,
         "tilecount":1,
         "tileheight":40,
         "tilewidth":40
        }, 
        {
         "firstgid":11,
         "image":"..\/gfx\/play\/wall_blue.png",
         "imageheight":80,
         "imagewidth":80,
         "margin":0,
         "name":"wall_blue",
         "properties":
            {

            },
         "spacing":0,
         "tilecount":1,
         "tileheight":80,
         "tilewidth":80
        }, 
        {
         "firstgid":12,
         "image":"..\/gfx\/play\/sw_blue_up.png",
         "imageheight":52,
         "imagewidth":80,
         "margin":0,
         "name":"sw_blue_up",
         "properties":
            {

            },
         "spacing":0,
         "tilecount":1,
         "tileheight":52,
         "tilewidth":80
        }, 
        {
         "firstgid":13,
         "image":"..\/gfx\/play\/fire.png",
         "imageheight":80,
         "imagewidth":80,
         "margin":0,
         "name":"fire",
         "properties":
            {

            },
         "spacing":0,
         "tilecount":1,
         "tileheight":80,
         "tilewidth":80
        }, 
        {
         "firstgid":14,
         "image":"..\/gfx\/play\/turret_4way.png",
         "imageheight":80,
         "imagewidth":80,
         "margin":0,
         "name":"turret_4way",
         "properties":
            {

            },
         "spacing":0,
         "tilecount":1,
         "tileheight":80,
         "tilewidth":80
        }],
 "tilewidth":80,
 "version":1,
 "width":16
}